<?xml version="1.0" encoding="UTF-8" standalone="no"?>
<!-- Created with Inkscape (http://www.inkscape.org/) -->

<svg
   width="141.62105mm"
   height="141.66483mm"
   viewBox="0 0 141.62105 141.66483"
   version="1.1"
   id="svg907"
   inkscape:version="1.1 (c4e8f9e, 2021-05-24)"
   sodipodi:docname="paw.svg"
   xmlns:inkscape="http://www.inkscape.org/namespaces/inkscape"
   xmlns:sodipodi="http://sodipodi.sourceforge.net/DTD/sodipodi-0.dtd"
   xmlns="http://www.w3.org/2000/svg"
   xmlns:svg="http://www.w3.org/2000/svg">
  <sodipodi:namedview
     id="namedview909"
     pagecolor="#ffffff"
     bordercolor="#666666"
     borderopacity="1.0"
     inkscape:pageshadow="2"
     inkscape:pageopacity="0.0"
     inkscape:pagecheckerboard="0"
     inkscape:document-units="mm"
     showgrid="false"
     fit-margin-top="0"
     fit-margin-left="0"
     fit-margin-right="0"
     fit-margin-bottom="0"
     inkscape:zoom="1"
     inkscape:cx="149"
     inkscape:cy="442.5"
     inkscape:window-width="2183"
     inkscape:window-height="1412"
     inkscape:window-x="0"
     inkscape:window-y="40"
     inkscape:window-maximized="1"
     inkscape:current-layer="layer2" />
  <defs
     id="defs904" />
  <g
     inkscape:groupmode="layer"
     id="layer2"
     inkscape:label="Layer 2"
     transform="translate(-36.540792,-24.172104)">
    <ellipse
       style="fill:#800080;stroke:none;stroke-width:0.264999"
       id="path1124"
       cx="81.567223"
       cy="56.143093"
       rx="20.772373"
       ry="31.522243" />
    <ellipse
       style="fill:#800080;stroke:none;stroke-width:0.264999"
       id="path1126"
       cx="131.64008"
       cy="55.550774"
       rx="20.756624"
       ry="31.37867" />
    <ellipse
       style="fill:#800080;stroke:none;stroke-width:0.264999"
       id="path1128"
       transform="rotate(31.758904)"
       ry="20.453167"
       rx="15.032475"
       cy="-3.1077123"
       cx="187.95767" />
    <ellipse
       style="fill:#800080;stroke:none;stroke-width:0.275456"
       id="path1130"
       cx="-6.7611132"
       cy="110.40717"
       rx="15.172102"
       ry="21.366508"
       transform="matrix(0.85323503,-0.5215266,0.54031828,0.84146073,0,0)" />
    <path
       style="fill:#800080;fill-opacity:1;stroke:none;stroke-width:0.264583px;stroke-linecap:butt;stroke-linejoin:miter;stroke-opacity:1"
       d="m 106.80078,93.588365 c -26.98881,0 -48.64195,37.296365 -48.64195,54.211475 0,16.91511 22.52962,18.03708 26.55318,18.03708 4.02356,0 17.79447,-4.91593 22.08877,-4.91593 4.2943,1e-5 18.06521,4.91594 22.08877,4.91594 4.02356,0 26.55318,-1.12197 26.55318,-18.03708 0,-16.91511 -21.65314,-54.211485 -48.64195,-54.211485"
       id="path1622-3"
       sodipodi:nodetypes="csscssc" />
  </g>
</svg>
